EESchema Schematic File Version 4
EELAYER 30 0
EELAYER END
$Descr A4 11693 8268
encoding utf-8
Sheet 1 1
Title "12V RGB LED Strip Raspberry Pi Interface"
Date ""
Rev "v0.1"
Comp "Sedrubal"
Comment1 ""
Comment2 ""
Comment3 ""
Comment4 ""
$EndDescr
$Comp
L Device:R R_RED_PD1
U 1 1 5FB39D57
P 5200 3100
F 0 "R_RED_PD1" H 5270 3146 50  0000 L CNN
F 1 "100kOhm" H 5270 3055 50  0000 L CNN
F 2 "Resistor_THT:R_Axial_DIN0207_L6.3mm_D2.5mm_P7.62mm_Horizontal" V 5130 3100 50  0001 C CNN
F 3 "~" H 5200 3100 50  0001 C CNN
	1    5200 3100
	1    0    0    -1  
$EndComp
$Comp
L Device:R R_GREEN_PD1
U 1 1 5FB3A68B
P 5150 3950
F 0 "R_GREEN_PD1" H 5220 3996 50  0000 L CNN
F 1 "100kOhm" H 5220 3905 50  0000 L CNN
F 2 "Resistor_THT:R_Axial_DIN0207_L6.3mm_D2.5mm_P7.62mm_Horizontal" V 5080 3950 50  0001 C CNN
F 3 "~" H 5150 3950 50  0001 C CNN
	1    5150 3950
	1    0    0    -1  
$EndComp
$Comp
L Device:R R_BLUE_PD1
U 1 1 5FB3ABA7
P 5150 4900
F 0 "R_BLUE_PD1" H 5220 4946 50  0000 L CNN
F 1 "100kOhm" H 5220 4855 50  0000 L CNN
F 2 "Resistor_THT:R_Axial_DIN0207_L6.3mm_D2.5mm_P7.62mm_Horizontal" V 5080 4900 50  0001 C CNN
F 3 "~" H 5150 4900 50  0001 C CNN
	1    5150 4900
	1    0    0    -1  
$EndComp
$Comp
L Device:R R_BLUE1
U 1 1 5FB3B26E
P 5000 4750
F 0 "R_BLUE1" V 4793 4750 50  0000 C CNN
F 1 "1kOhm" V 4884 4750 50  0000 C CNN
F 2 "Resistor_THT:R_Axial_DIN0207_L6.3mm_D2.5mm_P7.62mm_Horizontal" V 4930 4750 50  0001 C CNN
F 3 "~" H 5000 4750 50  0001 C CNN
	1    5000 4750
	0    1    1    0   
$EndComp
$Comp
L Device:R R_GREEN_1
U 1 1 5FB3B8E9
P 5000 3800
F 0 "R_GREEN_1" V 4793 3800 50  0000 C CNN
F 1 "1kOhm" V 4884 3800 50  0000 C CNN
F 2 "Resistor_THT:R_Axial_DIN0207_L6.3mm_D2.5mm_P7.62mm_Horizontal" V 4930 3800 50  0001 C CNN
F 3 "~" H 5000 3800 50  0001 C CNN
	1    5000 3800
	0    1    1    0   
$EndComp
$Comp
L Connector:Conn_01x04_Male J_LED1
U 1 1 5FB3CF48
P 8950 2850
F 0 "J_LED1" H 9100 3050 50  0000 R CNN
F 1 "Conn_01x04_Male" H 9300 3150 50  0000 R CNN
F 2 "TerminalBlock_4Ucon:TerminalBlock_4Ucon_1x04_P3.50mm_Horizontal" H 8950 2850 50  0001 C CNN
F 3 "~" H 8950 2850 50  0001 C CNN
	1    8950 2850
	-1   0    0    1   
$EndComp
$Comp
L power:+12V #PWR0101
U 1 1 5FB3F1E7
P 7650 2250
F 0 "#PWR0101" H 7650 2100 50  0001 C CNN
F 1 "+12V" H 7665 2423 50  0000 C CNN
F 2 "" H 7650 2250 50  0001 C CNN
F 3 "" H 7650 2250 50  0001 C CNN
	1    7650 2250
	1    0    0    -1  
$EndComp
$Comp
L power:GND #PWR0102
U 1 1 5FB3FBA0
P 5900 5800
F 0 "#PWR0102" H 5900 5550 50  0001 C CNN
F 1 "GND" H 5905 5627 50  0000 C CNN
F 2 "" H 5900 5800 50  0001 C CNN
F 3 "" H 5900 5800 50  0001 C CNN
	1    5900 5800
	1    0    0    -1  
$EndComp
$Comp
L Connector:Conn_01x04_Male J_RPI1
U 1 1 5FB3CAC0
P 3150 3800
F 0 "J_RPI1" H 3258 4081 50  0000 C CNN
F 1 "Conn_01x04_Male" H 3258 3990 50  0000 C CNN
F 2 "Connector_PinHeader_2.54mm:PinHeader_1x04_P2.54mm_Vertical" H 3150 3800 50  0001 C CNN
F 3 "~" H 3150 3800 50  0001 C CNN
	1    3150 3800
	1    0    0    -1  
$EndComp
Wire Wire Line
	4350 3700 4350 2950
Wire Wire Line
	4350 2950 4900 2950
Wire Wire Line
	4350 3900 4350 4750
Wire Wire Line
	4350 4750 4850 4750
Wire Wire Line
	5150 3800 6100 3800
Connection ~ 5150 3800
$Comp
L Device:R R_RED_1
U 1 1 5FB3BD72
P 5050 2950
F 0 "R_RED_1" V 4843 2950 50  0000 C CNN
F 1 "1kOhm" V 4934 2950 50  0000 C CNN
F 2 "Resistor_THT:R_Axial_DIN0207_L6.3mm_D2.5mm_P7.62mm_Horizontal" V 4980 2950 50  0001 C CNN
F 3 "~" H 5050 2950 50  0001 C CNN
	1    5050 2950
	0    1    1    0   
$EndComp
Connection ~ 5200 2950
Wire Wire Line
	5200 2950 6100 2950
Wire Wire Line
	5150 4750 6100 4750
Connection ~ 5150 4750
Wire Wire Line
	7650 2250 7650 2650
Wire Wire Line
	6950 2850 6950 3600
Wire Wire Line
	6950 3600 6400 3600
Wire Wire Line
	7300 2950 7300 4550
Wire Wire Line
	7300 4550 6400 4550
Wire Wire Line
	5200 3250 5200 3450
Wire Wire Line
	5200 3450 5900 3450
Wire Wire Line
	5900 3450 5900 4200
Wire Wire Line
	5150 4100 5150 4200
Wire Wire Line
	5150 4200 5900 4200
Connection ~ 5900 4200
Wire Wire Line
	5900 4200 5900 5200
Wire Wire Line
	5150 5050 5150 5200
Wire Wire Line
	5150 5200 5900 5200
Connection ~ 5900 5200
Wire Wire Line
	5900 5200 5900 5800
Wire Wire Line
	6400 4950 6400 5200
Wire Wire Line
	6400 5200 5900 5200
Wire Wire Line
	6400 4000 6400 4200
Wire Wire Line
	6400 4200 5900 4200
Wire Wire Line
	6400 3150 6400 3450
Wire Wire Line
	6400 3450 5900 3450
Connection ~ 5900 3450
Wire Wire Line
	4150 4000 4150 5200
Wire Wire Line
	4150 5200 5150 5200
Connection ~ 5150 5200
$Comp
L power:+12V #PWR0103
U 1 1 5FB87A11
P 3200 1550
F 0 "#PWR0103" H 3200 1400 50  0001 C CNN
F 1 "+12V" H 3215 1723 50  0000 C CNN
F 2 "" H 3200 1550 50  0001 C CNN
F 3 "" H 3200 1550 50  0001 C CNN
	1    3200 1550
	1    0    0    -1  
$EndComp
Wire Wire Line
	3200 1550 3200 1950
Wire Wire Line
	3200 1950 3000 1950
$Comp
L power:GND #PWR0104
U 1 1 5FB8B7F2
P 3200 2400
F 0 "#PWR0104" H 3200 2150 50  0001 C CNN
F 1 "GND" H 3205 2227 50  0000 C CNN
F 2 "" H 3200 2400 50  0001 C CNN
F 3 "" H 3200 2400 50  0001 C CNN
	1    3200 2400
	1    0    0    -1  
$EndComp
Wire Wire Line
	2800 2150 3000 2150
Wire Wire Line
	3200 2150 3200 2400
$Comp
L Connector:Barrel_Jack_Switch J1
U 1 1 5FB83AEC
P 2500 2050
F 0 "J1" H 2557 2367 50  0000 C CNN
F 1 "Barrel_Jack_Switch" H 2557 2276 50  0000 C CNN
F 2 "Connector_BarrelJack:BarrelJack_Horizontal" H 2550 2010 50  0001 C CNN
F 3 "~" H 2550 2010 50  0001 C CNN
	1    2500 2050
	1    0    0    -1  
$EndComp
NoConn ~ 2800 2050
Text Label 3450 4000 0    50   ~ 0
RPI_GPIO_GND
Text Label 3450 3800 0    50   ~ 0
RPI_GPIO_GREEN
Text Label 3450 3700 0    50   ~ 0
RPI_GPIO_RED
Wire Wire Line
	4150 4000 3350 4000
Wire Wire Line
	3350 3900 4350 3900
Wire Wire Line
	3350 3800 4850 3800
Wire Wire Line
	3350 3700 4350 3700
Text Label 3450 3900 0    50   ~ 0
RPI_GPIO_BLUE
Text Label 7700 2650 0    50   ~ 0
RGB_LED_STRIP_+12V
Text Label 7700 2750 0    50   ~ 0
RGB_LED_STRIP_GND_RED
Text Label 7700 2850 0    50   ~ 0
RGB_LED_STRIP_GND_GREEN
Text Label 7700 2950 0    50   ~ 0
RGB_LED_STRIP_GND_BLUE
Wire Wire Line
	7300 2950 8750 2950
Wire Wire Line
	6950 2850 8750 2850
Wire Wire Line
	6400 2750 8750 2750
Wire Wire Line
	8750 2650 7650 2650
$Comp
L power:PWR_FLAG #FLG0101
U 1 1 5FBBBA87
P 3000 1950
F 0 "#FLG0101" H 3000 2025 50  0001 C CNN
F 1 "PWR_FLAG" H 3000 2123 50  0000 C CNN
F 2 "" H 3000 1950 50  0001 C CNN
F 3 "~" H 3000 1950 50  0001 C CNN
	1    3000 1950
	1    0    0    -1  
$EndComp
Connection ~ 3000 1950
Wire Wire Line
	3000 1950 2800 1950
$Comp
L power:PWR_FLAG #FLG0102
U 1 1 5FBBC689
P 3000 2150
F 0 "#FLG0102" H 3000 2225 50  0001 C CNN
F 1 "PWR_FLAG" H 3000 2323 50  0000 C CNN
F 2 "" H 3000 2150 50  0001 C CNN
F 3 "~" H 3000 2150 50  0001 C CNN
	1    3000 2150
	-1   0    0    1   
$EndComp
Connection ~ 3000 2150
Wire Wire Line
	3000 2150 3200 2150
$Comp
L Device:Q_NMOS_GDS Q1
U 1 1 5FBC18FC
P 6300 2950
F 0 "Q1" H 6504 2996 50  0000 L CNN
F 1 "Q_NMOS_GDS" H 6504 2905 50  0000 L CNN
F 2 "Package_TO_SOT_THT:TO-220-3_Vertical" H 6500 3050 50  0001 C CNN
F 3 "~" H 6300 2950 50  0001 C CNN
	1    6300 2950
	1    0    0    -1  
$EndComp
$Comp
L Device:Q_NMOS_GDS Q2
U 1 1 5FBC2C4A
P 6300 3800
F 0 "Q2" H 6504 3846 50  0000 L CNN
F 1 "Q_NMOS_GDS" H 6504 3755 50  0000 L CNN
F 2 "Package_TO_SOT_THT:TO-220-3_Vertical" H 6500 3900 50  0001 C CNN
F 3 "~" H 6300 3800 50  0001 C CNN
	1    6300 3800
	1    0    0    -1  
$EndComp
$Comp
L Device:Q_NMOS_GDS Q3
U 1 1 5FBC5075
P 6300 4750
F 0 "Q3" H 6504 4796 50  0000 L CNN
F 1 "Q_NMOS_GDS" H 6504 4705 50  0000 L CNN
F 2 "Package_TO_SOT_THT:TO-220-3_Vertical" H 6500 4850 50  0001 C CNN
F 3 "~" H 6300 4750 50  0001 C CNN
	1    6300 4750
	1    0    0    -1  
$EndComp
$Comp
L Mechanical:MountingHole H1
U 1 1 5FBA0C95
P 3900 1600
F 0 "H1" H 4000 1646 50  0000 L CNN
F 1 "MountingHole" H 4000 1555 50  0000 L CNN
F 2 "MountingHole:MountingHole_3.2mm_M3" H 3900 1600 50  0001 C CNN
F 3 "~" H 3900 1600 50  0001 C CNN
	1    3900 1600
	1    0    0    -1  
$EndComp
$Comp
L Mechanical:MountingHole H3
U 1 1 5FBA2385
P 3900 2100
F 0 "H3" H 4000 2146 50  0000 L CNN
F 1 "MountingHole" H 4000 2055 50  0000 L CNN
F 2 "MountingHole:MountingHole_3.2mm_M3" H 3900 2100 50  0001 C CNN
F 3 "~" H 3900 2100 50  0001 C CNN
	1    3900 2100
	1    0    0    -1  
$EndComp
$Comp
L Mechanical:MountingHole H4
U 1 1 5FBA284A
P 3900 2350
F 0 "H4" H 4000 2396 50  0000 L CNN
F 1 "MountingHole" H 4000 2305 50  0000 L CNN
F 2 "MountingHole:MountingHole_3.2mm_M3" H 3900 2350 50  0001 C CNN
F 3 "~" H 3900 2350 50  0001 C CNN
	1    3900 2350
	1    0    0    -1  
$EndComp
$Comp
L Mechanical:MountingHole H2
U 1 1 5FBA3154
P 3900 1850
F 0 "H2" H 4000 1896 50  0000 L CNN
F 1 "MountingHole" H 4000 1805 50  0000 L CNN
F 2 "MountingHole:MountingHole_3.2mm_M3" H 3900 1850 50  0001 C CNN
F 3 "~" H 3900 1850 50  0001 C CNN
	1    3900 1850
	1    0    0    -1  
$EndComp
$EndSCHEMATC
